…
## Maximum Depths, 2017

``` r
rr_data %>%
  filter(year == 2017) %>%
  group_by(site, month) %>%
  summarize(maxdepth = max(depth, na.rm = TRUE))
#> `summarise()` has grouped output by 'site'. You can override using the `.groups` argument.
#> # A tibble: 33 x 3
#> # Groups:   site [9]
#>    site  month maxdepth
#>    <chr> <fct>    <dbl>
#>  1 CR-31 Jun      5.02 
#>  2 CR-31 Jul      1.9  
#>  3 CR-31 Aug      4.04 
#>  4 CR-31 Sep      4.99 
#>  5 CR-44 Jun      1.50 
#>  6 CR-44 Jul      1.5  
#>  7 CR-44 Aug      1.84 
#>  8 CR00  Jun      0.799
#>  9 CR00  Jul      0.2  
#> 10 CR00  Aug      0.523
#> # ... with 23 more rows
```
…
